{
  "project_info": {
    "project_number": "843160991401",
    "firebase_url": "https://i-alarmas-full.firebaseio.com",
    "project_id": "i-alarmas-full",
    "storage_bucket": "i-alarmas-full.appspot.com"
  },
  "client": [
    {
      "client_info": {
        "mobilesdk_app_id": "1:843160991401:android:84714c7e39bfa657efdbb8",
        "android_client_info": {
          "package_name": "com.example.ialerta"
        }
      },
      "oauth_client": [
        {
          "client_id": "843160991401-9ad6q9dhpmpm2tp7ka44672i26m3973m.apps.googleusercontent.com",
          "client_type": 1,
          "android_info": {
            "package_name": "com.example.ialerta",
            "certificate_hash": "d89b24366d179dbd76c58282722f99916fcd1797"
          }
        },
        {
          "client_id": "843160991401-entq3jb87quv6ubb5ur0rjgp96f33dt2.apps.googleusercontent.com",
          "client_type": 3
        }
      ],
      "api_key": [
        {
          "current_key": "AIzaSyBTVMOmcWTht0Gc9spKghMJL4QA5bbr78Q"
        }
      ],
      "services": {
        "appinvite_service": {
          "other_platform_oauth_client": [
            {
              "client_id": "843160991401-entq3jb87quv6ubb5ur0rjgp96f33dt2.apps.googleusercontent.com",
              "client_type": 3
            }
          ]
        }
      }
    }
  ],
  "configuration_version": "1"
}